{
    "success": true,
    "result": {
        "countries": [{
            "id": 1,
            "name": "Angola"
        },{
            "id": 2,
            "name": "Australia"
        },{
            "id": 5,
            "name": "Chile"
        },{
            "id": 12,
            "name": "USA"
        }],
        "currency": {
            "symbol": "$",
            "code": "USD"
        },
        "defaultCustomer": {
            "enabled": true,
            "country": 3,
            "monthlyMinimumEnabled": true,
            "monthlyMinimum": 0,
            "priceTiers": [{
                "from": 0,
                "to": 1000,
                "price": 0.05
            }],
            "prePaidBlocks": [],
            "requestCount": {
                "marketing": 1,
                "allPrograms": 1,
                "singleFare": 0,
                "programAndStatus": 1
            },
            "paymentTerm": 0
        },
        "defaultPrePaidBlock": {
            "size": 1000,
            "used": 0,
            "unitPrice": 0.05,
            "enabled": true
        },
        "paymentTerms": [{
            "id": 0,
            "name": "30 days"
        },{
            "id": 1,
            "name": "15 days"
        },{
            "id": 6,
            "name": "Whenever"
        }],
        "session":{
            "idleTimeout": 210,
            "logoutUrl": "http://30k.com"
        }
    }
}