{
    "success": 1,
    "result": {
        "customer": {
            "id": 1
        },
        "start": "2013-09-01",
        "end": "2014-08-01",
        "data": {
            "graphs": {
                "revenue": [
                    { "c": [ { "v": "2013-09-01" }, { "v": 60500 } ] },
                    { "c": [ { "v": "2013-10-01" }, { "v": 50000 } ] },
                    { "c": [ { "v": "2013-11-01" }, { "v": 50000 } ] },
                    { "c": [ { "v": "2013-12-01" }, { "v": 60500 } ] },
                    { "c": [ { "v": "2014-01-01" }, { "v": 88500 } ] },
                    { "c": [ { "v": "2014-02-01" }, { "v": 23800 } ] },
                    { "c": [ { "v": "2014-03-01" }, { "v": 120500 } ] },
                    { "c": [ { "v": "2014-04-01" }, { "v": 50000 } ] },
                    { "c": [ { "v": "2014-05-01" }, { "v": 60500 } ] },
                    { "c": [ { "v": "2014-06-01" }, { "v": 88500 } ] },
                    { "c": [ { "v": "2014-07-01" }, { "v": 23800 } ] },
                    { "c": [ { "v": "2014-08-01" }, { "v": 120500 } ] }
                ],
                "searches": [
                    { "c": [ { "v": "2013-09-01" }, { "v": 3000 } ] },
                    { "c": [ { "v": "2013-10-01" }, { "v": 12050 } ] },
                    { "c": [ { "v": "2013-11-01" }, { "v": 10000 } ] },
                    { "c": [ { "v": "2013-12-01" }, { "v": 8500 } ] },
                    { "c": [ { "v": "2014-01-01" }, { "v": 9200 } ] },
                    { "c": [ { "v": "2014-02-01" }, { "v": 3000 } ] },
                    { "c": [ { "v": "2014-03-01" }, { "v": 12050 } ] },
                    { "c": [ { "v": "2014-04-01" }, { "v": 10000 } ] },
                    { "c": [ { "v": "2014-05-01" }, { "v": 8500 } ] },
                    { "c": [ { "v": "2014-06-01" }, { "v": 9200 } ] },
                    { "c": [ { "v": "2014-07-01" }, { "v": 3000 } ] },
                    { "c": [ { "v": "2014-08-01" }, { "v": 12050 } ] }
                ]
            },
            "billings": {
                "items": [{
                    "from": "2014-04-01",
                    "to": "2014-06-01",
                    "product": "Miles Earned (Running)",
                    "requests": 102340,
                    "pricelist": "0-100000",
                    "unitPrice": 0.04,
                    "subtotal": 3200
                },{
                    "from": "2014-06-01",
                    "to": "2014-08-01",
                    "product": "Miles Earned (Pre-Paid)",
                    "requests": 52340,
                    "pricelist": "Pre-Paid 100000",
                    "unitPrice": 0.03,
                    "subtotal": 7100
                }],
                "paid": 2500
            }
        }
    }
}