{
    "success": true,
    "result": {
        "item": {
            "id": 4,
            "code": "RAEX1000",
            "name": 2,
            "active": true,
            "airline": {
                "code": "KM"
            },
            "fromFareFamily": 1,
            "toFareFamily": 2,
            "fromFareCodes": "YBH",
            "toFareCodes": "O",
            "brandedFaresActive": true,
    	    "brandedFares": ["ABC"],
            "marketingRules": ["affi"],
            "operatingRules": ["affi"],
            "flightNoLimit": ["1007-2300"],
            "flightNoExcl": ["2000-5000"],
            "marketingSpecificAirlines": [],
            "operatingSpecificAirlines": ["KO","ZO"],
            "ticketedBy": "ZK",
            "excludeCodeshare": true,
            "excludedDates": [],
            "legend": "Some explaination. Lorem ipsum sidor lamet",
            "hasLegend": true,
			"distrubuteLegend": false,
            "geographicalRules": ["MA-ZO", "LO.MA-DS", "23"],
            "codedConditions": ["XYZ"],
            "geoLogicalOperand": "or",
            "purchase": { 
    	        "from": "2013-02-01",
    	        "until": "2015-03-10"
    	    },
    	    "flight": {
    	        "from": "2015-03-01"
    	    },
    	    "excludedDepartures": ["1/2/2016", "1/4/2016-24/04/2016"],
    	    "excludedArrivals": ["1/2/2016"],
            "rules": [{
                "season": 4,
                "items": [{
                    "rangeFrom": 100,
                    "rangeTo": 1000,
                    "oneWay": 10000,
                    "factor": 1,
                    "minimum": 500,
                    "tfc": 1000,
                    "forLeg": false,
                    "applyToTiers": [1, 2],
                    "seasonalDates": []
                },{
                    "rangeFrom": 200,
                    "rangeTo": 2000,
                    "oneWay": 20000,
                    "factor": 1.5,
                    "minimum": 700,
                    "tfc": 300000,
                    "forLeg": true,
                    "applyToTiers": [1, 33],
                    "seasonalDates": ["2016-01-20", "2016-02-24"]
                },{
                    "gril": ["12-32", "17-40", "90-120", "MN.ZK.WK-DS"],
                    "logicalOperand": "OR",
                    "oneWay": 70000,
                    "factor": 1.5,
                    "minimum": 700,
                    "tfc": 100,
                    "forLeg": false,
                    "applyToTiers": [1, 2, 33],
                    "seasonalDates": []
                }]
            }],
            "comment": "Lorem ipsum sidor lamet",
            "modifiedAt": "2015-03-30T09:55:33.617Z",
            "createdAt": "2015-03-28T09:55:33.617Z",
            "modifiedBy": "John Smith",
            "createdBy": "Donald Smoke"
        }
    }
}