{
    "success": 1,
    "result": {
       "totalItems": 127,
       "page": 5,
       "itemsPerPage": 12,
       "invoices": [{
           "id": "30K00032",
           "date": "January 2013",
           "url": "http://url-to-pdf-file-with-invoice.com/xyz43244.pdf"
       },{
           "id": "30K00032",
           "date": "December 2012",
           "url": "http://url-to-pdf-file-with-invoice.com/xyz43244.pdf"
       },{
           "id": "30K00032",
           "date": "November 2012",
           "url": "http://url-to-pdf-file-with-invoice.com/xyz43244.pdf"
       },{
           "id": "30K00032",
           "date": "October 2012",
           "url": "http://url-to-pdf-file-with-invoice.com/xyz43244.pdf"
       },{
           "id": "30K00032",
           "date": "September 2012",
           "url": "http://url-to-pdf-file-with-invoice.com/xyz43244.pdf"
       },{
           "id": "30K00032",
           "date": "August 2012",
           "url": "http://url-to-pdf-file-with-invoice.com/xyz43244.pdf"
       },{
           "id": "30K00032",
           "date": "July 2012",
           "url": "http://url-to-pdf-file-with-invoice.com/xyz43244.pdf"
       },{
           "id": "30K00032",
           "date": "June 2012",
           "url": "http://url-to-pdf-file-with-invoice.com/xyz43244.pdf"
       },{
           "id": "30K00032",
           "date": "May 2012",
           "url": "http://url-to-pdf-file-with-invoice.com/xyz43244.pdf"
       },{
           "id": "30K00036",
           "date": "April 2012",
           "url": "http://url-to-pdf-file-with-invoice.com/xyz43244.pdf"
       },{
           "id": "30K00034",
           "date": "March 2012",
           "url": "http://url-to-pdf-file-with-invoice.com/xyz43244.pdf"
       },{
           "id": "30K00032",
           "date": "February 2012",
           "url": "http://url-to-pdf-file-with-invoice.com/xyz43244.pdf"
       }]
    }
}