{
    "success": true,
    "result": {
        "tools": [{
            "id": 12,
            "name": "CMS"
        },{
            "id": 14,
            "name": "CRM"
        },{
            "id": 33,
            "name": "Users"
        },{
            "id": 34,
            "name": "Access"
        }]
    }
}