{
    "success": true,
    "result": {
        "item": {
            "id": 4,
            "code": "RAEX1000A",
            "name": 1,
            "fareFamily": 1,
            "awardClass": 1,
            "marketingRules": ["own"],
            "operatingRules": ["own", "alli"],
            "excludedDates": [],
            "legend": "Some explaination. Lorem ipsum sidor lamet",
            "geographicalRules": ["MA-ZO", "LO.MA-DS", "23"],
            "rules": [{
                "rangeFrom": 100,
                "rangeTo": 1000,
                "oneWay": 10000,
                "tfc": 1000,
                "roundTrip": false,
                "elite": true,
                "seasonalDates": []
            },{
                "rangeFrom": 200,
                "rangeTo": 2000,
                "oneWay": 20000,
                "tfc": 300000,
                "roundTrip": true,
                "elite": false,
                "seasonalDates": ["2016-01-20", "2016-02-24"]
            },{
                "gril": ["12-32", "17-40", "90-120", "MN.ZK.WK-DS"],
                "oneWay": 70000,
                "tfc": 100,
                "roundTrip": false,
                "elite": true,
                "seasonalDates": []
            }],
            "comment": "Lorem ipsum sidor lamet"
        }
    }
}