{
    "success": true,
    "result": {
        "item": {
            "id": 1,
            "code": "RAEX1000",
            "active": true,
            "name": 1,
            "fareFamily": 1,
            "awardClass": 1,
            "marketingRules": ["own"],
            "operatingRules": ["own", "alli"],
            "flightNoLimit": ["1007-2300"],
            "flightNoExcl": ["2000-5000"],
            "marketingSpecificAirlines": [],
            "operatingSpecificAirlines": ["KO","ZO"],
            "ticketedBy": "ZK",
            "excludeCodeshare": true,
            "excludedDates": [],
            "legend": "Some explaination. Lorem ipsum sidor lamet",
            "hasLegend": false,
            "geographicalRules": ["MA-ZO", "LO.MA-DS", "23"],
            "codedConditions": ["XYZ"],
            "geoLogicalOperand": "or",
            "purchase": {
    	        "from": "2013-02-01",
    	        "until": "2015-03-10"
    	    },
    	    "flight": {
    	        "from": "2015-03-01"
    	    },
    	    "excludedDepartures": ["1/2/2016", "1/4/2016-24/04/2016"],
    	    "excludedArrivals": ["1/2/2016"],
            "rules": [{
                "name": "Off peak",
                "rangeFrom": 100,
                "rangeTo": 1000,
                "oneWay": 10000,
                "tfc": 1000,
                "forLeg": false,
                "roundTrip": false,
                "elite": true,
                "seasonalDates": []
            },{
                "name": "Peak",
                "rangeFrom": 200,
                "rangeTo": 2000,
                "oneWay": 20000,
                "tfc": 300000,
                "forLeg": true,
                "roundTrip": true,
                "elite": false,
                "seasonalDates": ["2016-01-20", "2016-02-24"]
            },{
                "gril": ["12-32", "17-40", "90-120", "MN.ZK.WK-DS"],
                "oneWay": 70000,
                "tfc": 100,
                "forLeg": false,
                "roundTrip": false,
                "elite": true,
                "seasonalDates": []
            }],
            "comment": "Lorem ipsum sidor lamet"
        }
    }
}