{
    "success": true,
    "result": {
        "item": {
            "id": 1,
            "calcTimestamp": "2015-07-23T18:25:43.511Z",
            "result": {
                "userFfps": [{
                    "id": 1,
                    "name": "Miles and More",
                    "connected": false,
                    "manualInput": false,
                    "accruals": [{
                        "id": 1,
                        "name": "Redeemable miles",
                        "status": false
                    },{
                        "id": 2,
                        "name": "Status miles",
                        "status": true
                    },{
                        "id": 3,
                        "name": "Status segments",
                        "status": true
                    },{
                        "id": 4,
                        "name": "Status points",
                        "status": true
                    }]
                }],
                "airports": [{
                    "code": "PVG",
                    "name": "Pudong International Airport"
                },{
                    "code": "DNK",
                    "name": "DNK Airport"
                },{
                    "code": "XYZ",
                    "name": "XYZ Airport"
                },{
                    "code": "LHR",
                    "name": "London Heathrow Airport"
                },{
                    "code": "SFO",
                    "name": "San Francisco International"
                }],
                "airlines": [{
                    "code": "UA",
                    "name": "United Airlines"
                },{
                    "code": "BA",
                    "name": "British Airways"
                }],
                "fares": [{
                    "color": 1,
                    "itinerary": {
                        "legs": [{
                            "flights": [{
                                "departure": "PVG",
                                "arrival": "DNK",
                                "flight": "CX678",
                                "bookingCode": "L",
                                "airline": "UA"
                            },{
                                "departure": "DNK",
                                "arrival": "XYZ",
                                "flight": "CX344",
                                "bookingCode": "L",
                                "airline": "UA"
                            },{
                                "departure": "XYZ",
                                "arrival": "LHR",
                                "flight": "CX7873",
                                "bookingCode": "L",
                                "airline": "UA"
                            }]
                        },{
                            "flights": [{
                                "departure": "LHR",
                                "arrival": "SFO",
                                "flight": "DS342",
                                "bookingCode": "X",
                                "airline": "BA"
                            }]
                        }]
                    },
                    "ffps": [{
                        "id": 1,
                        "best": true,
                        "accruals": [{
                            "accrualId": 1,
                            "value": 1000,
                            "legs": [{
                                "departure": "PVG",
                                "arrival": "LHR",
                                "value": 500,
                                "flights": [{
                                    "departure": "PVG",
                                    "arrival": "DNK",
                                    "value": 100
                                },{
                                    "departure": "DNK",
                                    "arrival": "XYZ",
                                    "value": 100
                                },{
                                    "departure": "XYZ",
                                    "arrival": "LHR",
                                    "value": 300
                                }]
                            },{
                                "departure": "LHR",
                                "arrival": "SFO",
                                "value": 500
                            }]
                        },{
                            "accrualId": 2,
                            "legs": []
                        },{
                            "accrualId": 3,
                            "legs": []
                        },{
                            "accrualId": 4,
                            "legs": []
                        }]
                    }]
                }]
            }
        }
    }
}