{
    "success": true,
    "result": {
        "items": [{
            "code": "AA",
            "name": "American Airlines"
        },{
            "code": "BA",
            "name": "British Airways"
        },{
            "code": "DA",
            "name": "Delta Airlines"
        },{
            "code": "EA",
            "name": "Etihad Airways"
        },{
            "code": "GW",
            "name": "Germanwings"
        },{
            "code": "KL",
            "name": "KLM"
        },{
            "code": "LA",
            "name": "Lufthansa"
        },{
            "code": "CE",
            "name": "China Eastern Airlines"
        },{
            "code": "VE",
            "name": "Vietnam Airlines"
        },{
            "code": "SU",
            "name": "Areoflot"
        },{
            "code": "CN",
            "name": "China Southern Airlines"
        },{
            "code": "AF",
            "name": "Air France"
        },{
            "code": "CI",
            "name": "Cityjet"
        }]
    }
}