{
    "success": true,
    "result": {
        "items": [{
            "id": 1,
            "name": "Delta Skymiles",
            "type": "ffp"
        },{
            "id": 2,
            "name": "Miles and More",
            "type": "ffp"
        },{
            "id": 3,
            "name": "AAdvantage",
            "type": "ffp"
        },{
            "id": 4,
            "name": "British Airways Executive Club",
            "type": "ffp"
        },{
            "id": 5,
            "name": "Lufthansa",
            "type": "airline"
        }]
    }
}