{
    "success": true,
    "result": {
        "item": {
            "id": 1,
            "code": "FUMPDH2AA",
            "active": true,
            "airline": {
                "code": "KM",
                "relationship": "alliance",
                "name": "Kosheen Airlines"
            },
            "subsidiaries": ["DS", "LS", "PO"],
            "rdbs": ["S", "F", "L", "K", "P"],
            "minimumMiles": 500,
            "bonusAwardMiles": false,
            "bonusStatusMiles": true,
            "geographicalRules": ["JP-4.5.3.IN.220.2.340",	"ZG-2.5.1.NO.22.1.34"],
            "flightNoLimit": ["1007-2300"],
            "flightNoExcl": ["2000-5000"],
            "marketingSpecificAirlines": [],
            "operatingSpecificAirlines": ["KO","ZO"],
            "marketingRules": ["own"],
    	    "operatingRules": ["subs", "own", "spec"],
    	    "codedConditions": ["C0de1", "c0de2"],
    	    "isInternational": true,
    	    "fareFamily": 1,
    	    "purchase": {
    	        "from": "2013-02-01",
    	        "until": "2015-03-10"
    	    },
    	    "flight": {
    	        "from": "2015-03-01"
    	    },
    	    "eliteBonusBase": 2,
            "minMilesCalcMethod": 2,
            "modifiedAt": "2015-03-30T09:55:33.617Z",
            "createdAt": "2015-03-28T09:55:33.617Z",
            "modifiedBy": "John Smith",
            "createdBy": "Donald Smoke",
            "ticketedBy": "ZK",
    	    "tiers": [{
                "id": 1,
                "name": "Member",
                "status": 1,
                "distanceBonus": 0,
                "revenueBonus": 0,
                "applyMinMiles": false,
                "accruals": [{
                    "id": 1,
                    "value": 10000
                },{
                    "id": 2,
                    "value": 15000
                },{
                    "id": 54,
                    "value": 1000
                }],
                "gril": ["DS", "KO", "MK-LO"]
            },{
                "id": 2,
                "name": "Premier Silver",
                "status": 2,
                "distanceBonus": 0.25,
                "revenueBonus": 0.5,
                "applyMinMiles": false,
                "accruals": [{
                    "id": 1,
                    "value": 16000
                },{
                    "id": 2,
                    "value": 19000
                },{
                    "id": 54,
                    "value": 1500
                }],
                "gril": []
            }],
    	    "rules": [{
    	        "accrual": 1,
    	        "summary": 1000,
    	        "items": [{
    	            "id": 1,
    	            "factor": 1.5,
    	            "fixed": 200,
    	            "fixedBonus": 300,
    	            "minimum": 2000,
    	            "forLeg": false,
    	            "eliteBonus": false,
    	            "eliteMinimum": true,
    	            "gril": ["DSD-WO.DS", "DKOW-OK-200"]
    	        },{
    	            "id": 2,
    	            "factor": 3,
    	            "fixed": 100,
    	            "fixedBonus": 3000,
    	            "minimum": 2500,
    	            "forLeg": true,
    	            "eliteBonus": false,
    	            "eliteMinimum": true,
    	            "rangeFrom": 5001,
    	            "rangeTo": 9000,
    	            "gril": []
    	        },{
    	            "id": 3,
    	            "factor": 2.5,
    	            "fixed": 300,
    	            "fixedBonus": 3500,
    	            "minimum": 1500,
    	            "forLeg": false,
    	            "eliteBonus": false,
    	            "eliteMinimum": false,
    	            "rangeFrom": 9001,
    	            "rangeTo": 10000,
    	            "gril": []
    	        }]
    	    },{
    	        "accrual": 2,
    	        "summary": 3000,
    	        "items": [{
    	            "id": 5,
    	            "factor": 3,
    	            "fixed": 100,
    	            "fixedBonus": 3000,
    	            "minimum": 2500,
    	            "forLeg": true,
    	            "eliteBonus": false,
    	            "eliteMinimum": true,
    	            "rangeFrom": 5001,
    	            "rangeTo": 9000,
    	            "gril": []
    	        },{
    	            "id": 23,
    	            "factor": 0.5,
    	            "fixed": 300,
    	            "fixedBonus": 3500,
    	            "minimum": 1500,
    	            "forLeg": false,
    	            "eliteBonus": false,
    	            "eliteMinimum": false,
    	            "rangeFrom": 9001,
    	            "rangeTo": 10000,
    	            "gril": []
    	        }]
    	    },{
    	        "accrual": 54,
    	        "summary": 500,
    	        "items": [{
    	            "id": 24,
    	            "factor": 1,
    	            "fixed": 200,
    	            "fixedBonus": 300,
    	            "minimum": 2000,
    	            "forLeg": false,
    	            "eliteBonus": false,
    	            "eliteMinimum": true,
    	            "rangeFrom": 3000,
    	            "rangeTo": 5000,
    	            "gril": []
    	        },{
    	            "id": 65,
    	            "factor": 3.4,
    	            "fixed": 100,
    	            "fixedBonus": 3000,
    	            "minimum": 2500,
    	            "forLeg": true,
    	            "eliteBonus": false,
    	            "eliteMinimum": true,
    	            "rangeFrom": 5001,
    	            "rangeTo": 9000,
    	            "gril": []
    	        }]
    	    }],
            "comment": "Lorem ipsum sidor lamet",
            "review": {
                "status": "new",
                "modifiedBy": "John Smith",
                "modifiedAt": "2015-03-30T09:55:33.617Z"
            },
            "__prev": {
                "code": "FUMPDH2KA",
                "active": false,
                "airline": {
                    "code": "ZZ",
                    "relationship": "private",
                    "name": "Nova Airlines"
                },
                "subsidiaries": ["DS", "LS", "PO", "ZO"],
                "rdbs": ["S", "L", "K", "P"],
                "minimumMiles": 100,
                "bonusAwardMiles": true,
                "bonusStatusMiles": false,
                "geographicalRules": [],
                "flightNoLimit": ["1007-5000"],
                "flightNoExcl": ["2000", "2000-3000", "3000-2000"],
                "marketingSpecificAirlines": ["ZO"],
                "operatingSpecificAirlines": ["KO","ZO"],
                "marketingRules": ["cur", "spec"],
        	    "operatingRules": ["own", "spec"],
        	    "codedConditions": ["C0de1", "c0de2", "WDKO"],
        	    "isInternational": false,
        	    "fareFamily": 2,
        	    "purchase": {
        	        "from": "2013-01-01",
        	        "until": "2013-02-10"
        	    },
        	    "flight": {
        	        "from": "2013-03-01"
        	    },
        	    "eliteBonusBase": 1,
                "minMilesCalcMethod": 1,
                "ticketedBy": "FF",
                "comment": "",
                "tiers": [{
                    "id": 1,
                    "name": "Memberino",
                    "status": 2,
                    "distanceBonus": 100,
                    "revenueBonus": 20,
                    "applyMinMiles": true,
                    "accruals": [{
                        "id": 1,
                        "value": 100
                    },{
                        "id": 2,
                        "value": 18000
                    },{
                        "id": 54,
                        "value": 1000
                    }],
                    "gril": ["DS", "MK-LO"]
                },{
                    "id": 124,
                    "name": "Another Member",
                    "status": 2,
                    "distanceBonus": 1000,
                    "revenueBonus": 400,
                    "applyMinMiles": false,
                    "accruals": [{
                        "id": 1,
                        "value": 150
                    },{
                        "id": 2,
                        "value": 18000
                    },{
                        "id": 54,
                        "value": 1000
                    }],
                    "gril": ["DS", "MK-WOFDFD"]
                }],
                "rules": [{
        	        "accrual": 1,
        	        "items": [{
        	            "id": 1,
        	            "factor": 2,
        	            "fixedBonus": 500,
        	            "forLeg": true,
        	            "gril": ["DSD-WO.DS"]
        	        },{
        	            "id": 29,
        	            "factor": 5,
        	            "fixed": 500,
        	            "fixedBonus": 3000,
        	            "minimum": 2500,
        	            "forLeg": true,
        	            "eliteBonus": false,
        	            "eliteMinimum": true,
        	            "rangeFrom": 5001,
        	            "rangeTo": 9000,
        	            "gril": []
        	        }]
        	    },{
        	        "accrual": 2,
        	        "items": []
        	    },{
        	        "accrual": 54,
        	        "summary": 500,
        	        "items": [{
        	            "id": 40,
        	            "factor": 1,
        	            "fixed": 200,
        	            "fixedBonus": 300,
        	            "minimum": 2000,
        	            "forLeg": false,
        	            "eliteBonus": false,
        	            "eliteMinimum": true,
        	            "rangeFrom": 3000,
        	            "rangeTo": 5000,
        	            "gril": []
        	        },{
        	            "id": 65,
        	            "factor": 6.4,
        	            "fixed": 600,
        	            "minimum": 2700,
        	            "eliteBonus": true,
        	            "eliteMinimum": false,
        	            "rangeFrom": 5006,
        	            "rangeTo": 5000,
        	            "gril": ["ANY", "ADD-KOK"]
        	        }]
        	    }]
            }
        }
    }
}