{
    "success": true,
    "result": {
        "itineraries": [{
            "id": 1,
            "name": "John Flylover",
            "program": "Favourite Program Name",
            "rdm": 4234,
            "eqm": 324,
            "eqs": 7675,
            "eqp": 234,
            "distance": 42553,
            "trips": [
                { "route": [{"code": "LAX"}, {"code": "SHA"}] },
                { "route": [{"code": "SHA"}, {"code": "PEK"}, {"code": "NYC"}] },
                { "route": [{"code": "WWA"}, {"code": "POZ"}, {"code": "GDA"}] }
            ]
        },{
            "id": 2,
            "name": "John Myflier",
            "program": "Super Flyer",
            "rdm": 2234,
            "eqm": 3241,
            "eqs": 767,
            "eqp": 2340,
            "distance": 10553,
            "trips": [
                { "route": [{"code":"SHA"}, {"code":"PEK"}, {"code":"NYC"}] },
                { "route": [{"code":"LAX"}, {"code": "SHA"}] },
                { "route": [{"code": "WWA"}, {"code": "POZ"}] }
            ]
        },{
            "id": 5,
            "name": "Third Guy",
            "program": "Messershmit Lucky Miles",
            "rdm": 4234,
            "eqm": 1241,
            "eqs": 7671,
            "eqp": 234,
            "distance": 50055,
            "trips": [
                { "route": [{"code": "WWA"}, {"code": "POZ"}] },
                { "route": [{"code": "LAX"}, {"code": "SHA"}, {"code": "GDA"}] }
            ]
        }]
    }
}