{
    "success": true,
    "result": {
        "cabins": [{
            "id": 1,
            "name": "Economy"
        },{
            "id": 2,
            "name": "Business"
        }],
        "awardTypes": [{
            "id": "flight",
            "name": "Flight"
        },{
            "id": "upgrade",
            "name": "Upgrade"
        }],
        "settings": { 
            "username": {
                "username": "dummy"
            },
            "password": {},
            "email": {
                "email": "dummy@dummy.com"
            },
            "location": {
                "location": {
                    "code": "PVG",
                    "name": "Pudong Shanghai Airport"
                }
            },
            "programs": {
                "expanded": true,
                "ffps": [{
                    "id": 1,
                    "name": "Delta Skymiles",
                    "accruals": [{
                        "id": 1,
                        "name": "Redeemable miles",
                        "priority": true
                    },{
                        "id": 2,
                        "name": "Status miles",
                        "priority": true
                    },{
                        "id": 3,
                        "name": "Status segments",
                        "priority": false
                    }]
                },{
                    "id": 2,
                    "name": "AAdvantage",
                    "accruals": [{
                        "id": 4,
                        "name": "Award miles",
                        "priority": true
                    },{
                        "id": 5,
                        "name": "Status miles",
                        "priority": true
                    },{
                        "id": 6,
                        "name": "Status segments",
                        "priority": false
                    },{
                        "id": 7,
                        "name": "Status points",
                        "priority": true
                    }]
                }]
            },
            "goal": {
                "departure": {
                    "code": "PVG",
                    "name": "Pudong Shanghai Airport"
                },
                "arrival": {
                    "code": "LHR",
                    "name": "London Heathrow Airport"
                },
                "awardType": "flight",
                "cabin": 1,
                "people": 1
            },
            "account": {
                
            }
        }
    }
}