{
    "success": true,
    "result": {
        "items": [{
            "id": 4,
            "code": "FUMPDH2AAA",
            "active": true,
            "airline": {
                "code": "KM",
                "relationship": "alliance",
                "name": "Kosheen Airlines"
            },
            "subsidiaries": ["DS", "LS", "PO"],
            "rdbs": ["S", "F", "L", "K", "P"],
            "minimumMiles": 500,
            "bonusAwardMiles": false,
            "bonusStatusMiles": true,
            "geographicalRules": ["JP-4.5.3.IN.220.2.340",	"ZG-2.5.1.NO.22.1.34"],
            "flightNoLimit": ["1007-2300"],
            "flightNoExcl": ["2000-5000"],
            "marketingSpecificAirlines": [],
            "operatingSpecificAirlines": ["KO","ZO"],
            "marketingRules": ["affi"],
    	    "operatingRules": ["affi"],
    	    "codedConditions": ["C0de1", "c0de2"],
    	    "applyToTiers": [1],
    	    "isInternational": true,
    	    "fareFamily": 1,
    	    "brandedFaresActive": true,
    	    "brandedFares": ["ABC"],
    	    "purchase": {},
    	    "flight": {},
    	    "eliteBonusBase": 2,
            "minMilesCalcMethod": 2,
            "modifiedAt": "2015-03-30T09:55:33.617Z",
            "createdAt": "2015-03-28T09:55:33.617Z",
            "modifiedBy": "John Smith",
            "createdBy": "Donald Smoke",
            "ticketedBy": ["ZK"],
            "bookingChannel": "airline",
    	    "tiers": [{
                "id": 1,
                "name": "Member",
                "status": 1,
                "distanceBonus": 0,
                "revenueBonus": 0,
                "applyMinMiles": false
            },{
                "id": 2,
                "name": "Premier Silver",
                "status": 2,
                "distanceBonus": 0.25,
                "revenueBonus": 0.5,
                "applyMinMiles": false
            }],
    	    "rules": [{
    	        "accrual": 1,
    	        "summary": 1000,
    	        "items": [{
    	            "factor": 1.5,
    	            "fixed": 200,
    	            "fixedBonus": 300,
    	            "minimum": 2000,
    	            "forLeg": false,
    	            "eliteBonus": false,
    	            "eliteMinimum": true,
    	            "gril": ["DSD-WO.DS", "DKOW-OK-200"]
    	        },{
    	            "factor": 3,
    	            "fixed": 100,
    	            "fixedBonus": 3000,
    	            "minimum": 2500,
    	            "forLeg": true,
    	            "eliteBonus": false,
    	            "eliteMinimum": true,
    	            "rangeFrom": 5001,
    	            "rangeTo": 9000,
    	            "gril": []
    	        },{
    	            "factor": 2.5,
    	            "fixed": 300,
    	            "fixedBonus": 3500,
    	            "minimum": 1500,
    	            "forLeg": false,
    	            "eliteBonus": false,
    	            "eliteMinimum": false,
    	            "rangeFrom": 9001,
    	            "rangeTo": 10000,
    	            "gril": []
    	        }]
    	    },{
    	        "accrual": 2,
    	        "summary": 3000,
    	        "items": [{
    	            "factor": 3,
    	            "fixed": 100,
    	            "fixedBonus": 3000,
    	            "minimum": 2500,
    	            "forLeg": true,
    	            "eliteBonus": false,
    	            "eliteMinimum": true,
    	            "rangeFrom": 5001,
    	            "rangeTo": 9000,
    	            "gril": []
    	        },{
    	            "factor": 0.5,
    	            "fixed": 300,
    	            "fixedBonus": 3500,
    	            "minimum": 1500,
    	            "forLeg": false,
    	            "eliteBonus": false,
    	            "eliteMinimum": false,
    	            "rangeFrom": 9001,
    	            "rangeTo": 10000,
    	            "gril": []
    	        }]
    	    },{
    	        "accrual": 54,
    	        "summary": 500,
    	        "items": [{
    	            "factor": 1,
    	            "fixed": 200,
    	            "fixedBonus": 300,
    	            "minimum": 2000,
    	            "forLeg": false,
    	            "eliteBonus": false,
    	            "eliteMinimum": true,
    	            "rangeFrom": 3000,
    	            "rangeTo": 5000,
    	            "gril": []
    	        },{
    	            "factor": 3.4,
    	            "fixed": 100,
    	            "fixedBonus": 3000,
    	            "minimum": 2500,
    	            "forLeg": true,
    	            "eliteBonus": false,
    	            "eliteMinimum": true,
    	            "rangeFrom": 5001,
    	            "rangeTo": 9000,
    	            "gril": []
    	        }]
    	    }],
            "comment": "Lorem ipsum sidor lamet"
        },{
            "id": 5,
            "code": "FUMPDK2AAA",
            "active": false,
            "airline": {
                "code": "KM",
                "relationship": "private",
                "name": "Kosheen Airlines"
            },
            "subsidiaries": ["DS", "LS"],
            "rdbs": ["S", "F", "L"],
            "minimumMiles": 100,
            "bonusAwardMiles": false,
            "bonusStatusMiles": false,
            "geographicalRules": [],
            "flightNoLimit": [],
            "flightNoExcl": [],
            "marketingSpecificAirlines": [],
            "operatingSpecificAirlines": [],
            "marketingRules": [],
    	    "operatingRules": ["subs"],
    	    "codedConditions": [],
    	    "applyToTiers": [1],
    	    "isInternational": false,
    	    "fareFamily": 2,
    	    "brandedFaresActive": false,
    	    "brandedFares": [],
    	    "purchase": {
    	        "from": "2013-02-01"
    	    },
    	    "flight": {
    	        "until": "2016-01-01"
    	    },
    	    "eliteBonusBase": 2,
            "minMilesCalcMethod": 2,
            "modifiedAt": "2015-03-30T09:55:33.617Z",
            "createdAt": "2015-03-28T09:55:33.617Z",
            "modifiedBy": "John Smith",
            "createdBy": "Donald Smoke",
            "ticketedBy": [],
            "bookingChannel": "airline",
    	    "tiers": [{
                "id": 3,
                "name": "Rookie",
                "status": 1,
                "distanceBonus": 0,
                "revenueBonus": 0,
                "applyMinMiles": false
            },{
                "id": 7,
                "name": "Premier Silver",
                "status": 2,
                "distanceBonus": 0.5,
                "revenueBonus": 0.5,
                "applyMinMiles": false
            }],
    	    "rules": [{
    	        "accrual": 1,
    	        "summary": 700,
    	        "items": [{
    	            "factor": 1,
    	            "fixed": 200,
    	            "fixedBonus": 300,
    	            "minimum": 2000,
    	            "forLeg": false,
    	            "eliteBonus": 1000,
    	            "eliteMinimum": true,
    	            "rangeFrom": 3000,
    	            "rangeTo": 5000
    	        }]
    	    },{
    	        "accrual": 2,
    	        "summary": 6000,
    	        "items": [{
    	            "factor": 3,
    	            "fixed": 100,
    	            "fixedBonus": 3000,
    	            "minimum": 2500,
    	            "forLeg": true,
    	            "eliteBonus": 4000,
    	            "eliteMinimum": true,
    	            "rangeFrom": 5001,
    	            "rangeTo": 9000
    	        }]
    	    },{
    	        "accrual": 54,
    	        "summary": 1000,
    	        "items": [{
    	            "factor": 0.75,
    	            "fixed": 100,
    	            "fixedBonus": 3000,
    	            "minimum": 2500,
    	            "forLeg": true,
    	            "eliteBonus": 4000,
    	            "eliteMinimum": true,
    	            "rangeFrom": 5001,
    	            "rangeTo": 9000
    	        }]
    	    }],
            "comment": "Lorem ipsum sidor lamet sideor lamet"
        }]
    }
}