{
    "success": true,
    "result": {
        "item": {
            "id": 1
        },
        "filters": {
            "airlineRelationships": [{
                "code": "any",
                "name": "Any"
            },{
                "code": "private",
                "name": "Private"
            }],
            "fareFamilies": [{
                "id": 1,
                "name": "Discount Economy"
            },{
                "id": 3,
                "name": "Business"
            }],
            "airlines": ["AC", "ZK", "M8"],
            "subsidiaries": ["HJ", "KO", "UO"],
            "marketingSpecificAirlines": [],
            "operatingSpecificAirlines": ["HJ", "MN", "BN", "SO"]
        }
    },
    "message": "Selected FFP rule has been successfully deleted."
}