{
    "Success": true,
    "Rule": {
        "ProgramId": 1,
		"Id": 3,
        "RuleId": "FUMPDH2AAA",
        "FareFamily": 1,
        "AirlineCode": "DH",
        "RDBs": "SHKLMEJ",
        "MinimumMiles": 500,
        "BonusAwardMiles": true,
        "BonusStatusMiles": false,
        "GeoFilters": ["JP-4.5.3.IN.220.2.340",	"ZG-2.5.1.NO.22.1.34"],
        "Comments": "Lorem ipsum sidor lamet",
        "MarketingRules": ["1",	"3"],
    	"OperatingRules": ["2",	"3", "6"],
    	"Subsidiaries": ["AD",	"ZF",	"TK",	"DS"],
    	"AccrualGroups": [{
            "AccrualType": "Rdm",
            "EarningBase": 1,
            "Value": 1000,
            "Rules": [{
                "Id": 1,
                "Factor": 1.5,
                "RangeFrom": 0,
                "RangeTo": 3000
            },{
                "Id": 2,
                "Factor": 2,
                "RangeFrom": 3001,
                "RangeTo": 5000
            }]
        },{
            "AccrualType": "Rdm",
            "EarningBase": 2,
            "Value": 800,
            "Rules": [{
                "Id": 13,
                "Factor": 2,
                "RangeFrom": 100,
                "RangeTo": 1000
            },{
                "Id": 22,
                "Factor": 3,
                "RangeFrom": 1001,
                "RangeTo": 5000
            }]
        },{
            "AccrualType": "Eqm",
            "EarningBase": 1,
            "Value": 400,
            "Rules": []
        }]
    }
}