{
    "Success": true,
    "Rule": {
		"Id": 1,
        "RuleId": "FUMPDH4AA",
        "AwardMiles": 1000,
        "AwardPoints": 1000,
        "StatusMiles": 1000,
        "StatusSegments": 10,
        "MinimumMiles": 500,
        "BonusAwardMiles": true,
        "BonusStatusMiles": false
    }
}