{
    "success": true,
    "result": {
        "bookingClasses": [{
            "id": 1,
            "name": "Class X"
        },{
            "id": 2,
            "name": "Class Y"
        },{
            "id": 3,
            "name": "Class Z"
        }]
    }
}