{
    "success": true,
    "result": {
        "items": [{
            "id": 1
        },{
            "id": 2
        }]
    },
    "message": "2 selected redemption FFP rules has been successfully deleted."
}