{
    "success": true,
    "result": {
        "item": {
            "id": 1,
            "code": "RAEX1000",
            "type": "award",
            "bookingClass": 2,
            "bookingClassAlias": "Saver",
            "carriers": ["alli", "spec"],
            "specificCarriers": [{
                "code": "ZK",
                "relationship": "alliance"
            },{
                "code": "JK",
                "relationship": "private"
            },{
                "code": "GH",
                "relationship": "alliance"
            }],
            "rules": [{
                "rangeFrom": 100,
                "rangeTo": 1000,
                "oneWay": 10000,
                "ret": 200000
            },{
                "rangeFrom": 200,
                "rangeTo": 2000,
                "oneWay": 20000,
                "ret": 300000
            },{
                "gril": ["12-32", "17-40", "90-120", "MN.ZK.WK-DS"],
                "oneWay": 70000,
                "ret": 900000
            }],
            "legend": "Some explaination. Lorem ipsum sidor lamet",
            "comment": "Lorem ipsum sidor lamet"
        }
    }
}