{
	"Id": 1,
	"Name": "United MileagePlus",
	"Enabled": true,
	"HelpUrl": "http://www.united.com/web/en-US/apps/account/settings/password/passwordResolution.aspx",
	"WebSiteUrl": "http://www.united.com/web/en-us/content/mileageplus/default.aspx",
	"ExternalLoginEnabled": true,
	"OwningAirline": "UA",
	"Alliance": 2,
	"Tiers": [{
		"Id": 5,
		"Name": "Member",
		"TierAlias": "Bronze",
		"IsElite": false,
		"Bonus": null
	},
	{
		"Id": 6,
		"Name": "Premier Silver",
		"TierAlias": "Silver",
		"IsElite": true,
		"Bonus": 0.25
	},
	{
		"Id": 7,
		"Name": "Premier Gold",
		"TierAlias": "Gold",
		"IsElite": true,
		"Bonus": 0.5
	},
	{
		"Id": 8,
		"Name": "Premier Platinum",
		"TierAlias": "Platinum",
		"IsElite": true,
		"Bonus": 0.75
	},
	{
		"Id": 9,
		"Name": "Premier 1K",
		"TierAlias": "ExecutivePlatinum",
		"IsElite": true,
		"Bonus": 1.0
	}],
	"ConfiguredAccruals": [{
		"Id": 1,
		"AccrualType": "Rdm",
		"Name": "Redeemable Miles"
	},
	{
		"Id": 2,
		"AccrualType": "Eqm",
		"Name": "Status Miles"
	},
	{
		"Id": 3,
		"AccrualType": "Eqs",
		"Name": "Status segments"
	}]
}