{
    "success": true,
    "result": {
        
        "ffps": [{
            "id": 1,
            "name": "Super Frequent Program",
            "showFare": true
        },{
            "id": 3,
            "name": "Another FFP",
            "showFare": false
        },{
            "id": 123,
            "name": "Worth Flying Program",
            "showFare": true
        },{
            "id": 324,
            "name": "Lorem Ipsum Sidor",
            "showFare": true
        },{
            "id": 34,
            "name": "Consectetur adipiscing elit",
            "showFare": true
        },{
            "id": 3241,
            "name": "Curabitur congue",
            "showFare": true
        },{
            "id": 3214,
            "name": "Praesent sed dolor",
            "showFare": true
        },{
            "id": 24,
            "name": "In erat dui condimentum",
            "showFare": true
        },{
            "id": 924,
            "name": "Vestibulum et nibh",
            "showFare": true
        },{
            "id": 394,
            "name": "Duis vel sollicitudin",
            "showFare": true
        },{
            "id": 3249,
            "name": "Proin dolor eros",
            "showFare": true
        }],
        
        "fareCodes": ["A", "B", "C", "D", "E", "F", "G", "H", "I", "J", "K", "L", "M", "N", "O", "P", "Ó", "Z", "Ω"],
        
        "airlines": [{
            "code": "BK",
            "name": "Bangkok Airlines"
        },{
            "code": "SH",
            "name": "Shengen Airlines"
        },{
            "code": "PK",
            "name": "Pacific Carrier"
        },{
            "code": "ZZ",
            "name": "Angola Airlines"
        }],
        
        "currencies": ["USD", "EUR", "CNY", "CHF", "PLN", "RUB", "MZN", "MNT", "FRK", "PDK", "LAN", "WAN", "TAN", "SPA", "LOK", "LOL"]
        
    }
}