{
    "success": true,
    "result": {
        "benefits": [{
            "id": 1,
            "code": "XTRBGG",
            "name": "Extra baggage allowance",
            "active": true,
			"conceptTypes": [{
                "id": "pieces",
                "name": "Number of pieces"
            },{
                "id": "weight",
                "name": "Weight"
            }],
            "weightMetricTypes": [{
                "id": "kg",
                "name": "Kilogram"
            },{
                "id": "lb",
                "name": "Pound"
            }],
            "sizeMetricTypes": [{
                "id": "cm",
                "name": "Centimeter"
            },{
                "id": "in",
                "name": "Inches"
            }],
            "defaultRule": {
                "weightMetricType": "kg",
                "sizeMetricType": "in",
                "quantity": 1
            }
        },{
            "id": 2,
            "code": "LNGACS",
            "name": "Lounge Access",
            "active": true
        },{
            "id": 3,
            "code": "FRCND",
            "name": "Free candies",
            "active": false
        },{
            "id": 4,
            "code": "XTRCBN",
            "name": "Extra cabin baggage allowance",
            "active": true,
			"conceptTypes": [{
                "id": "pieces",
                "name": "Number of pieces"
            },{
                "id": "weight",
                "name": "Weight"
            }],
            "weightMetricTypes": [{
                "id": "kg",
                "name": "Kilogram"
            },{
                "id": "lb",
                "name": "Pound"
            }],
            "sizeMetricTypes": [{
                "id": "cm",
                "name": "Centimeter"
            },{
                "id": "in",
                "name": "Inches"
            }],
            "defaultRule": {
                "weightMetricType": "kg",
                "sizeMetricType": "in",
                "quantity": 1,
                "excludePersonalItem": false
            }
        },{
            "id": 5,
            "code": "WVDBGF",
            "name": "Extra baggage allowance",
            "active": true,
			"conceptTypes": [{
                "id": "pieces",
                "name": "Number of pieces"
            },{
                "id": "weight",
                "name": "Weight"
            }],
            "weightMetricTypes": [{
                "id": "kg",
                "name": "Kilogram"
            },{
                "id": "lb",
                "name": "Pound"
            }],
            "sizeMetricTypes": [{
                "id": "cm",
                "name": "Centimeter"
            },{
                "id": "in",
                "name": "Inches"
            }],
            "defaultRule": {
                "weightMetricType": "kg",
                "sizeMetricType": "in",
                "quantity": 1
            }
        },{
            "id": 6,
            "code": "SPCBGG",
            "name": "Extra special baggage allowance",
            "active": true,
			"conceptTypes": [{
                "id": "pieces",
                "name": "Number of pieces"
            },{
                "id": "weight",
                "name": "Weight"
            }],
            "weightMetricTypes": [{
                "id": "kg",
                "name": "Kilogram"
            },{
                "id": "lb",
                "name": "Pound"
            }],
            "sizeMetricTypes": [{
                "id": "cm",
                "name": "Centimeter"
            },{
                "id": "in",
                "name": "Inches"
            }],
            "baggageTypes": [{
                "id": "sport",
                "name": "Sport equipment"
            },{
                "id": "music",
                "name": "Musical instrument"
            }],
            "defaultRule": {
                "weightMetricType": "kg",
                "sizeMetricType": "in",
                "quantity": 1,
                "baggageType": "sport"
            }
        }],
        "defaultCurrencyCode": "CHF",
        "filterOperationalTypes": [{
            "code": "all",
            "name": "All"
        },{
            "code": "alli",
            "name": "Alliance"
        },{
            "code": "priv",
            "name": "Private"
        },{
            "code": "spe",
            "name": "Specific"
        }]
    }
}