{
    "success": true,
    "result": {
        "item": {
            "id": 1,
            "active": true,
            "code": "RAEX1034",
            "airline": {
                "code": "KM"
            },
            "benefit": 4,
            "status": 1,
            "name": "Baggage Economy/Europe",
            "description": "Lorem ipsum sidor lamet",
            "memberCostType": "fee",
            "memberCost": 20,
            "currencyCode": "USD",
            "memberDiscountAvailable": true,
            "memberDiscount": 20,
            "guestsMaxNumber": 3,
            "guestsFamilyOnly": false,
            "guestsCostType": "fee",
            "guestsCost": 20,
            "guestsDiscountAvailable": true,
            "guestsDiscount": 15,
            "disclaimer": "Lorem ipsum sidor lamet",
            "distributeDisclaimer": true,
            "marketingRules": ["affi"],
            "marketingSpecificAirlines": [],
            "operatingRules": ["affi"],
            "operatingSpecificAirlines": [],
            "geographicalRules": ["EUR", "LO.MA-DS", "23"],
            "codedConditions": [],
            "fareFamily": 1,
            "brandedFaresActive": true,
    	    "brandedFares": ["ABC"],
            "fareCodes": "AZH",
            "purchase": { 
    	        "from": "2013-02-01",
    	        "until": "2015-03-10"
    	    },
    	    "flight": {
    	        "from": "2015-03-01"
    	    },
            "comment": "Lorem ipsum sidor lamet",
            "modifiedAt": "2015-03-30T09:55:33.617Z",
            "createdAt": "2015-03-28T09:55:33.617Z",
            "modifiedBy": "John Smith",
            "createdBy": "Donald Smoke",
            "conceptType": "pieces",
            "quantity": 2,
            "weight": 23,
            "weightMetricType": "kg",
            "sizeLength": 120,
            "sizeHeight": 90,
            "sizeWidth": 60,
            "sizeMetricType": "cm",
            "totalLength": 200,
            "excludePersonalItem": true
        }
    }
}