{
    "success": true,
    "result": {
        "item": {
            "id": 1,
            "name": "Miles and More",
            "status": "Gold Status",
            "username": "325435345",
            "connected": true,
            "accruals": [{
                "id": 1,
                "name": "Redeemable miles",
                "status": false,
                "value": 12434
            },{
                "id": 2,
                "name": "Status miles",
                "status": true,
                "value": 24435
            },{
                "id": 3,
                "name": "Status segments",
                "status": true,
                "value": 3
            },{
                "id": 4,
                "name": "Status points",
                "status": true,
                "value": 354
            }]
        }
    }
}