{
	"ProgramId": 1,
	"isLoaded": true,
	"Id": "FUMPDH2AA",
	"Enabled": true,
	"AirlineCode": "DH",
	"Relationship": 2,
	"Subsidiaries": ["AD",	"ZF",	"TK",	"DS"],
	"RDBs": "SHKLMEJ",
	"FareFamily": 1,
	"FareFamilyName": "Discount Economy",
	"MarketingRules": ["1",	"3"],
	"OperatingRules": ["2",	"3"],
	"FlightNoLimit": "1007-2300",
	"FlightNoExcl": "2000-5000",
	"Continents": ["South America",	"Africa"],
	"Zones": ["Alpha Centauri"],
	"Countries": ["Mongolia",	"Spain",	"Canada"],
	"Airports": ["DMS",	"ZMK",	"NOM"],
	"ValidityFrom": "12/03/2011",
	"ValidityUntil": "23/03/2012",
	"AccrualGroups": [{
		"AccrualType": "Rdm",
		"Rules": [{
			"Factor": 100,
			"Fixed": 100,
			"FixedBonus": 1000,
			"Minimum": 2000,
			"EliteBonus": false,
			"EliteMinimum": true,
			"RangeFrom": 3000,
			"RangeTo": 5000,
			"Id": 1,
			"observed": {
				"Factor": 0,
				"Fixed": 0,
				"FixedBonus": 0,
				"Minimum": 0,
				"EliteBonus": false,
				"EliteMinimum": false,
				"RangeFrom": 0,
				"RangeTo": 0
			},
			"isViewModel": false,
			"computed": {
				
			},
			"mapped": {
				
			}
		},
		{
			"Factor": 200,
			"Fixed": 200,
			"FixedBonus": 1000,
			"Minimum": 2000,
			"EliteBonus": false,
			"EliteMinimum": true,
			"RangeFrom": 3000,
			"RangeTo": 5000,
			"Id": 2,
			"observed": {
				"Factor": 0,
				"Fixed": 0,
				"FixedBonus": 0,
				"Minimum": 0,
				"EliteBonus": false,
				"EliteMinimum": false,
				"RangeFrom": 0,
				"RangeTo": 0
			},
			"isViewModel": false,
			"computed": {
				
			},
			"mapped": {
				
			}
		}],
		"observed": {
			"AccrualType": "",
			"Rules": []
		},
		"mapped": {
			
		},
		"isViewModel": false,
		"computed": {
			
		}
	},
	{
		"AccrualType": "Eqm",
		"Rules": [{
			"Factor": 0,
			"Fixed": 0,
			"FixedBonus": 0,
			"Minimum": 0,
			"EliteBonus": false,
			"EliteMinimum": false,
			"RangeFrom": 0,
			"RangeTo": 0,
			"Id": null,
			"observed": {
				"Factor": 0,
				"Fixed": 0,
				"FixedBonus": 0,
				"Minimum": 0,
				"EliteBonus": false,
				"EliteMinimum": false,
				"RangeFrom": 0,
				"RangeTo": 0
			},
			"isViewModel": false,
			"computed": {
				
			},
			"mapped": {
				
			}
		}],
		"observed": {
			"AccrualType": "",
			"Rules": []
		},
		"mapped": {
			
		},
		"isViewModel": false,
		"computed": {
			
		}
	},
	{
		"AccrualType": "Eqs",
		"Rules": [{
			"Factor": 0,
			"Fixed": 0,
			"FixedBonus": 0,
			"Minimum": 0,
			"EliteBonus": false,
			"EliteMinimum": false,
			"RangeFrom": 0,
			"RangeTo": 0,
			"Id": null,
			"observed": {
				"Factor": 0,
				"Fixed": 0,
				"FixedBonus": 0,
				"Minimum": 0,
				"EliteBonus": false,
				"EliteMinimum": false,
				"RangeFrom": 0,
				"RangeTo": 0
			},
			"isViewModel": false,
			"computed": {
				
			},
			"mapped": {
				
			}
		}],
		"observed": {
			"AccrualType": "",
			"Rules": []
		},
		"mapped": {
			
		},
		"isViewModel": false,
		"computed": {
			
		}
	},
	{
		"AccrualType": "Rdp",
		"Rules": [{
			"Factor": 0,
			"Fixed": 0,
			"FixedBonus": 0,
			"Minimum": 0,
			"EliteBonus": false,
			"EliteMinimum": false,
			"RangeFrom": 0,
			"RangeTo": 0,
			"Id": null,
			"observed": {
				"Factor": 0,
				"Fixed": 0,
				"FixedBonus": 0,
				"Minimum": 0,
				"EliteBonus": false,
				"EliteMinimum": false,
				"RangeFrom": 0,
				"RangeTo": 0
			},
			"isViewModel": false,
			"computed": {
				
			},
			"mapped": {
				
			}
		}],
		"observed": {
			"AccrualType": "",
			"Rules": []
		},
		"mapped": {
			
		},
		"isViewModel": false,
		"computed": {
			
		}
	}],
	"AwardMiles": 1000,
	"AwardPoints": 1000,
	"StatusMiles": 1000,
	"StatusSegments": 10,
	"MinimumMiles": 500,
	"BonusAwardMiles": true,
	"BonusStatusMiles": false,
	"GeoRulesDesc": "LON-DUB.BEL",
	"subsidiariesInput": {
		"tags": ["AD",
		"ZF",
		"TK",
		"DS"],
		"inputFinishCodes": {
			"comma": 188,
			"enter": 13,
			"space": 32
		},
		"stopKeys": ["comma",
		"enter",
		"space"],
		"isViewModel": false,
		"observed": {
			
		},
		"computed": {
			
		},
		"mapped": {
			
		}
	},
	"continentsInput": {
		"tags": ["South America",
		"Africa"],
		"stopKeys": ["comma",
		"enter"],
		"inputFinishCodes": {
			"comma": 188,
			"enter": 13,
			"space": 32
		},
		"isViewModel": false,
		"observed": {
			
		},
		"computed": {
			
		},
		"mapped": {
			
		}
	},
	"zonesInput": {
		"tags": ["Alpha Centauri"],
		"stopKeys": ["comma",
		"enter"],
		"inputFinishCodes": {
			"comma": 188,
			"enter": 13,
			"space": 32
		},
		"isViewModel": false,
		"observed": {
			
		},
		"computed": {
			
		},
		"mapped": {
			
		}
	},
	"countriesInput": {
		"tags": ["Mongolia",
		"Spain",
		"Canada"],
		"stopKeys": ["comma",
		"enter"],
		"inputFinishCodes": {
			"comma": 188,
			"enter": 13,
			"space": 32
		},
		"isViewModel": false,
		"observed": {
			
		},
		"computed": {
			
		},
		"mapped": {
			
		}
	},
	"airportsInput": {
		"tags": ["DMS",
		"ZMK",
		"NOM"],
		"stopKeys": ["comma",
		"enter"],
		"inputFinishCodes": {
			"comma": 188,
			"enter": 13,
			"space": 32
		},
		"isViewModel": false,
		"observed": {
			
		},
		"computed": {
			
		},
		"mapped": {
			
		}
	},
	"numericId": 2,
	"cloned": 2,
	"even": true,
	"isNew": false,
	"FareCodes": ["S",
	"H",
	"K",
	"L",
	"M",
	"E",
	"J"],
	"ComputedId": "FUMPDH2AA",
	"observed": {
		"ProgramId": 0,
		"isLoaded": false,
		"Id": "",
		"Enabled": true,
		"AirlineCode": "",
		"Relationship": null,
		"Subsidiaries": [],
		"RDBs": "",
		"FareFamily": null,
		"FareFamilyName": "",
		"MarketingRules": [],
		"OperatingRules": [],
		"FlightNoLimit": "",
		"FlightNoExcl": "",
		"Continents": [],
		"Zones": [],
		"Countries": [],
		"Airports": [],
		"ValidityFrom": "",
		"ValidityUntil": "",
		"AccrualGroups": [],
		"AwardMiles": "",
		"AwardPoints": "",
		"StatusMiles": "",
		"StatusSegments": "",
		"MinimumMiles": "",
		"BonusAwardMiles": false,
		"BonusStatusMiles": false,
		"GeoRulesDesc": "",
		"subsidiariesInput": null,
		"continentsInput": null,
		"zonesInput": null,
		"countriesInput": null,
		"airportsInput": null,
		"numericId": 0,
		"cloned": 0,
		"even": true,
		"isNew": false
	},
	"computed": {
		
	},
	"mapped": {
		
	},
	"isViewModel": false
}