{
	"isNew": false,
	"Name": "United MileagePlus",
	"Code": "UP",
	"Enabled": true,
	"HelpUrl": "http://www.united.com/web/en-US/apps/account/settings/password/passwordResolution.aspx",
	"WebSiteUrl": "http://www.united.com/web/en-us/content/mileageplus/default.aspx",
	"SignUpUrl": "http://www.united.com/web/en-us/content/mileageplus/signup/",
	"Alliance": 2,
	"Tiers": [{
		"Name": "Member",
		"TierAlias": "Bronze",
		"IsElite": false,
		"Bonus": null,
		"Id": 5,
		"isBonusIncorrect": false,
		"observed": {
			"Name": "",
			"TierAlias": null,
			"IsElite": false,
			"Bonus": 0
		},
		"computed": {
			
		},
		"isViewModel": false,
		"mapped": {
			
		}
	},
	{
		"Name": "Premier Silver",
		"TierAlias": "Silver",
		"IsElite": true,
		"Bonus": 0.25,
		"Id": 6,
		"isBonusIncorrect": false,
		"observed": {
			"Name": "",
			"TierAlias": null,
			"IsElite": false,
			"Bonus": 0
		},
		"computed": {
			
		},
		"isViewModel": false,
		"mapped": {
			
		}
	},
	{
		"Name": "Premier Gold",
		"TierAlias": "Gold",
		"IsElite": true,
		"Bonus": 0.5,
		"Id": 7,
		"isBonusIncorrect": false,
		"observed": {
			"Name": "",
			"TierAlias": null,
			"IsElite": false,
			"Bonus": 0
		},
		"computed": {
			
		},
		"isViewModel": false,
		"mapped": {
			
		}
	},
	{
		"Name": "Premier Platinum",
		"TierAlias": "Platinum",
		"IsElite": true,
		"Bonus": 0.75,
		"Id": 8,
		"isBonusIncorrect": false,
		"observed": {
			"Name": "",
			"TierAlias": null,
			"IsElite": false,
			"Bonus": 0
		},
		"computed": {
			
		},
		"isViewModel": false,
		"mapped": {
			
		}
	},
	{
		"Name": "Premier 1K",
		"TierAlias": "ExecutivePlatinum",
		"IsElite": true,
		"Bonus": 1,
		"Id": 9,
		"isBonusIncorrect": false,
		"observed": {
			"Name": "",
			"TierAlias": null,
			"IsElite": false,
			"Bonus": 0
		},
		"computed": {
			
		},
		"isViewModel": false,
		"mapped": {
			
		}
	}],
	"ConfiguredAccruals": [{
		"AccrualType": "Rdm",
		"Alias": "Redeemable Miles",
		"EarningBase": 1,
		"Enabled": true,
		"Id": 1,
		"elementId": "program-accrual-rdm",
		"isValid": true,
		"observed": {
			"AccrualType": "",
			"Alias": "",
			"EarningBase": null,
			"Enabled": false
		},
		"computed": {
			
		},
		"Name": "",
		"isViewModel": false,
		"mapped": {
			
		}
	},
	{
		"AccrualType": "Eqm",
		"Alias": "Status Miles",
		"EarningBase": 1,
		"Enabled": true,
		"Id": 2,
		"elementId": "program-accrual-eqm",
		"isValid": true,
		"observed": {
			"AccrualType": "",
			"Alias": "",
			"EarningBase": null,
			"Enabled": false
		},
		"computed": {
			
		},
		"Name": "",
		"isViewModel": false,
		"mapped": {
			
		}
	},
	{
		"AccrualType": "Eqs",
		"Alias": "Status segments",
		"EarningBase": 2,
		"Enabled": true,
		"Id": 3,
		"elementId": "program-accrual-eqs",
		"isValid": true,
		"observed": {
			"AccrualType": "",
			"Alias": "",
			"EarningBase": null,
			"Enabled": false
		},
		"computed": {
			
		},
		"Name": "",
		"isViewModel": false,
		"mapped": {
			
		}
	},
	{
		"AccrualType": "Rdp",
		"Alias": "",
		"Enabled": false,
		"Name": "Points",
		"elementId": "program-accrual-rdp",
		"isValid": true,
		"observed": {
			"AccrualType": "",
			"Alias": "",
			"EarningBase": null,
			"Enabled": false
		},
		"computed": {
			
		},
		"Id": null,
		"isViewModel": false,
		"mapped": {
			
		}
	}],
	"Codeshare": "2",
	"OwningAirlines": ["SE",
	"DK",
	"KK",
	"AS"],
	"editedTier": {
		"Name": "",
		"TierAlias": "Bronze",
		"IsElite": false,
		"Bonus": 0,
		"isBonusIncorrect": false,
		"Id": null,
		"observed": {
			"Name": "",
			"TierAlias": null,
			"IsElite": false,
			"Bonus": 0
		},
		"computed": {
			
		},
		"isViewModel": false,
		"mapped": {
			
		}
	},
	"isLoaded": true,
	"airlinesInput": {
		"tags": ["SE",
		"DK",
		"KK",
		"AS"],
		"inputFinishCodes": {
			"comma": 188,
			"enter": 13,
			"space": 32
		},
		"stopKeys": ["comma",
		"enter",
		"space"],
		"isViewModel": false,
		"observed": {
			
		},
		"computed": {
			
		},
		"mapped": {
			
		}
	},
	"rules": [],
	"hasRulesLoaded": false,
	"editedRule": {
		"ProgramId": 0,
		"isLoaded": false,
		"Id": "",
		"Enabled": true,
		"AirlineCode": "",
		"Relationship": null,
		"Subsidiaries": [],
		"RDBs": "",
		"FareFamily": null,
		"FareFamilyName": "",
		"MarketingRules": [],
		"OperatingRules": [],
		"FlightNoLimit": "",
		"FlightNoExcl": "",
		"Continents": [],
		"Zones": [],
		"Countries": [],
		"Airports": [],
		"ValidityFrom": "",
		"ValidityUntil": "",
		"AccrualGroups": [{
			"AccrualType": "Rdm",
			"Rules": [{
				"Factor": 0,
				"Fixed": 0,
				"FixedBonus": 0,
				"Minimum": 0,
				"EliteBonus": false,
				"EliteMinimum": false,
				"RangeFrom": 0,
				"RangeTo": 0,
				"Id": null,
				"observed": {
					"Factor": 0,
					"Fixed": 0,
					"FixedBonus": 0,
					"Minimum": 0,
					"EliteBonus": false,
					"EliteMinimum": false,
					"RangeFrom": 0,
					"RangeTo": 0
				},
				"isViewModel": false,
				"computed": {
					
				},
				"mapped": {
					
				}
			}],
			"observed": {
				"AccrualType": "",
				"Rules": []
			},
			"mapped": {
				
			},
			"isViewModel": false,
			"computed": {
				
			}
		},
		{
			"AccrualType": "Eqm",
			"Rules": [{
				"Factor": 0,
				"Fixed": 0,
				"FixedBonus": 0,
				"Minimum": 0,
				"EliteBonus": false,
				"EliteMinimum": false,
				"RangeFrom": 0,
				"RangeTo": 0,
				"Id": null,
				"observed": {
					"Factor": 0,
					"Fixed": 0,
					"FixedBonus": 0,
					"Minimum": 0,
					"EliteBonus": false,
					"EliteMinimum": false,
					"RangeFrom": 0,
					"RangeTo": 0
				},
				"isViewModel": false,
				"computed": {
					
				},
				"mapped": {
					
				}
			}],
			"observed": {
				"AccrualType": "",
				"Rules": []
			},
			"mapped": {
				
			},
			"isViewModel": false,
			"computed": {
				
			}
		},
		{
			"AccrualType": "Eqs",
			"Rules": [{
				"Factor": 0,
				"Fixed": 0,
				"FixedBonus": 0,
				"Minimum": 0,
				"EliteBonus": false,
				"EliteMinimum": false,
				"RangeFrom": 0,
				"RangeTo": 0,
				"Id": null,
				"observed": {
					"Factor": 0,
					"Fixed": 0,
					"FixedBonus": 0,
					"Minimum": 0,
					"EliteBonus": false,
					"EliteMinimum": false,
					"RangeFrom": 0,
					"RangeTo": 0
				},
				"isViewModel": false,
				"computed": {
					
				},
				"mapped": {
					
				}
			}],
			"observed": {
				"AccrualType": "",
				"Rules": []
			},
			"mapped": {
				
			},
			"isViewModel": false,
			"computed": {
				
			}
		},
		{
			"AccrualType": "Rdp",
			"Rules": [{
				"Factor": 0,
				"Fixed": 0,
				"FixedBonus": 0,
				"Minimum": 0,
				"EliteBonus": false,
				"EliteMinimum": false,
				"RangeFrom": 0,
				"RangeTo": 0,
				"Id": null,
				"observed": {
					"Factor": 0,
					"Fixed": 0,
					"FixedBonus": 0,
					"Minimum": 0,
					"EliteBonus": false,
					"EliteMinimum": false,
					"RangeFrom": 0,
					"RangeTo": 0
				},
				"isViewModel": false,
				"computed": {
					
				},
				"mapped": {
					
				}
			}],
			"observed": {
				"AccrualType": "",
				"Rules": []
			},
			"mapped": {
				
			},
			"isViewModel": false,
			"computed": {
				
			}
		}],
		"AwardMiles": "",
		"AwardPoints": "",
		"StatusMiles": "",
		"StatusSegments": "",
		"MinimumMiles": "",
		"BonusAwardMiles": false,
		"BonusStatusMiles": false,
		"GeoRulesDesc": "",
		"subsidiariesInput": {
			"tags": [],
			"inputFinishCodes": {
				"comma": 188,
				"enter": 13,
				"space": 32
			},
			"stopKeys": ["comma",
			"enter",
			"space"],
			"isViewModel": false,
			"observed": {
				
			},
			"computed": {
				
			},
			"mapped": {
				
			}
		},
		"continentsInput": {
			"tags": [],
			"stopKeys": ["comma",
			"enter"],
			"inputFinishCodes": {
				"comma": 188,
				"enter": 13,
				"space": 32
			},
			"isViewModel": false,
			"observed": {
				
			},
			"computed": {
				
			},
			"mapped": {
				
			}
		},
		"zonesInput": {
			"tags": [],
			"stopKeys": ["comma",
			"enter"],
			"inputFinishCodes": {
				"comma": 188,
				"enter": 13,
				"space": 32
			},
			"isViewModel": false,
			"observed": {
				
			},
			"computed": {
				
			},
			"mapped": {
				
			}
		},
		"countriesInput": {
			"tags": [],
			"stopKeys": ["comma",
			"enter"],
			"inputFinishCodes": {
				"comma": 188,
				"enter": 13,
				"space": 32
			},
			"isViewModel": false,
			"observed": {
				
			},
			"computed": {
				
			},
			"mapped": {
				
			}
		},
		"airportsInput": {
			"tags": [],
			"stopKeys": ["comma",
			"enter"],
			"inputFinishCodes": {
				"comma": 188,
				"enter": 13,
				"space": 32
			},
			"isViewModel": false,
			"observed": {
				
			},
			"computed": {
				
			},
			"mapped": {
				
			}
		},
		"numericId": 0,
		"cloned": 0,
		"even": true,
		"isNew": false,
		"FareCodes": [],
		"observed": {
			"ProgramId": 0,
			"isLoaded": false,
			"Id": "",
			"Enabled": true,
			"AirlineCode": "",
			"Relationship": null,
			"Subsidiaries": [],
			"RDBs": "",
			"FareFamily": null,
			"FareFamilyName": "",
			"MarketingRules": [],
			"OperatingRules": [],
			"FlightNoLimit": "",
			"FlightNoExcl": "",
			"Continents": [],
			"Zones": [],
			"Countries": [],
			"Airports": [],
			"ValidityFrom": "",
			"ValidityUntil": "",
			"AccrualGroups": [],
			"AwardMiles": "",
			"AwardPoints": "",
			"StatusMiles": "",
			"StatusSegments": "",
			"MinimumMiles": "",
			"BonusAwardMiles": false,
			"BonusStatusMiles": false,
			"GeoRulesDesc": "",
			"subsidiariesInput": null,
			"continentsInput": null,
			"zonesInput": null,
			"countriesInput": null,
			"airportsInput": null,
			"numericId": 0,
			"cloned": 0,
			"even": true,
			"isNew": false
		},
		"computed": {
			
		},
		"mapped": {
			
		},
		"isViewModel": false
	},
	"ruleNumericId": 0,
	"Id": 1,
	"EnabledClass": "success",
	"EnabledText": "Enabled",
	"isValid": true,
	"LastRuleNo": 3,
	"observed": {
		"isNew": false,
		"Name": "",
		"Code": "",
		"Enabled": true,
		"HelpUrl": "",
		"WebSiteUrl": "",
		"SignUpUrl": "",
		"Alliance": null,
		"Tiers": [],
		"ConfiguredAccruals": [],
		"Codeshare": "1",
		"OwningAirlines": [],
		"editedTier": null,
		"isLoaded": false,
		"airlinesInput": null,
		"rules": [],
		"hasRulesLoaded": false,
		"editedRule": null,
		"ruleNumericId": 0
	},
	"computed": {
		
	},
	"mapped": {
		
	},
	"isViewModel": false
}