{
	"success": true,
	"result": {
		"alliances": [{
			"id": 1,
			"name": "Star Alliance"
		}, {
			"id": 2,
			"name": "Another Alliance"
		}, {
			"id": 35,
			"name": "Miles and More"
		}],
		"statuses": [{
			"id": 1,
			"name": "Bronze"
		}, {
			"id": 2,
			"name": "Silver"
		}, {
			"id": 3,
			"name": "Gold"
		}, {
			"id": 4,
			"name": "Platinum"
		}, {
			"id": 5,
			"name": "Executive Platinum"
		}],
		"earningBases": [{
			"code": "distance",
			"name": "Distance"
		}, {
			"code": "base_fare",
			"name": "Baze fare"
		}, {
			"code": "base_fare_with_surcharges",
			"name": "Base fare & surcharges"
		}],
		"accrualTypes": [{
			"id": 1,
			"name": "Redeemable miles"
		}, {
			"id": 2,
			"name": "Status miles"
		}, {
			"id": 3,
			"name": "Status segments"
		}, {
			"id": 4,
			"name": "Redeemable points"
		}],
		"airlineRelationships": [{
			"code": "alliance",
			"name": "Alliance"
		}, {
			"code": "private",
			"name": "Private"
		}],
		"fareFamilies": [{
			"id": 1,
			"name": "Discount Economy"
		}, {
			"id": 2,
			"name": "Economy"
		}, {
			"id": 3,
			"name": "Business"
		}, {
			"id": 4,
			"name": "First Class"
		}],
		"codeshareRuleTypes": [{
			"code": "own",
			"name": "Owning"
		}, {
			"code": "affi",
			"name": "Affiliate"
		}, {
			"code": "alli",
			"name": "Alliance"
		}, {
			"code": "priv",
			"name": "Private"
		}, {
			"code": "spe",
			"name": "Specific"
		}, {
			"code": "exc",
			"name": "Excludes"
		}, {
			"code": "oth",
			"name": "Others"
		}, {
			"code": "any",
			"name": "Any"
		}],
		"codeshareEarningTypes": [{
			"code": "op",
			"name": "Operat. car."
		}, {
			"code": "mk",
			"name": "Market. car."
		}],
		"eliteBonusTypes": [{
			"id": 1,
			"name": "Distance"
		}, {
			"id": 2,
			"name": "Flexible factor"
		}, {
			"id": 3,
			"name": "Accrual"
		}],
		"distanceUnits": [{
			"unit": "mi",
			"name": "Miles"
		}, {
			"unit": "km",
			"name": "Kilometers"
		}],
		"defaultTier": {
			"status": 1,
			"distanceBonus": 0,
			"revenueBonus": 0,
			"applyMinMiles": false,
			"applyForRenewal": true,
			"qualification": [{
				"accruals": [],
				"gril": []
			}],
			"renewal": []
		},
		"defaultAccrual": {
			"type": 1,
			"earningBase": 1
		},
		"defaultFfp": {
			"earningActive": true,
			"redemptionActive": true,
			"owningAirlines": [],
			"affiliatedAirlines": [],
			"eliteBonusBase": 1,
			"codeshareBase": "op",
			"distanceUnit": "mi",
			"minMilesCalcMethod": 1,
			"tiers": [],
			"accruals": [{
				"type": 1,
				"earningBase": "distance"
			}]
		},
		"defaultRule": {
			"active": true,
			"airline": {
				"relationship": "alliance"
			},
			"subsidiaries": [],
			"rdbs": [],
			"bonusAwardMiles": false,
			"bonusStatusMiles": false,
			"geographicalRules": [],
			"flightNoLimit": [],
			"flightNoExcl": [],
			"marketingSpecificAirlines": [],
			"operatingSpecificAirlines": [],
			"marketingExcludedAirlines": [],
			"operatingExcludedAirlines": [],
			"marketingRules": [],
			"operatingRules": ["own", "alli"],
			"codedConditions": [],
			"isInternational": true,
			"fareFamily": 1,
			"brandedFaresActive": false,
			"brandedFares": [],
			"purchase": {},
			"flight": {},
			"eliteBonusBase": 1,
			"minMilesCalcMethod": 1,
			"tiers": [],
			"rules": [],
			"ticketedBy": [],
			"review": {
				"status": "new"
			},
			"applyToTiers": [],
			"bookingChannel": "none"
		},
		"pagination": {
			"default": 50,
			"allowed": [25, 50, 75, 100]
		},
		"minMilesCalcMethods": [{
			"id": 1,
			"name": "Actual distance"
		}, {
			"id": 2,
			"name": "Minimum earned"
		}, {
			"id": 3,
			"name": "Last"
		}, {
			"id": 4,
			"name": "Minimum distance"
		}, {
			"id": 5,
			"name": "Flexible factor minimum distance"
		}],
		"redemptionTypes": [{
			"code": "award",
			"name": "Award"
		}, {
			"code": "upgrade",
			"name": "Upgrade"
		}],
		"awardClasses": [{
			"id": 1,
			"name": "Class 1"
		}, {
			"id": 2,
			"name": "Class 2"
		}, {
			"id": 3,
			"name": "Class 3"
		}, {
			"id": 4,
			"name": "Class 4"
		}, {
			"id": 5,
			"name": "Class 5"
		}, {
			"id": 6,
			"name": "Class 6"
		}, {
			"id": 7,
			"name": "Class 7"
		}],
		"upgradeOperationalTypes": [{
			"code": "own",
			"name": "Owning"
		}, {
			"code": "affi",
			"name": "Affiliate"
		}, {
			"code": "all",
			"name": "Alliance"
		}, {
			"code": "spe",
			"name": "Specific"
		}, {
			"code": "exc",
			"name": "Excludes"
		}, {
			"code": "oth",
			"name": "Others"
		}, {
			"code": "any",
			"name": "Any"
		}],
		"defaultAward": {
			"active": true,
			"rules": [],
			"marketingRules": ["own"],
			"operatingRules": ["own"],
			"flightNoLimit": [],
			"flightNoExcl": [],
			"marketingSpecificAirlines": [],
			"operatingSpecificAirlines": [],
			"excludeCodeshare": false,
			"excludedDates": [],
			"geographicalRules": [],
			"codedConditions": [],
			"geoLogicalOperand": "or",
			"purchase": {},
			"flight": {},
			"excludedDepartures": [],
			"excludedArrivals": [],
			"hasLegend": false
		},
		"defaultUpgrade": {
			"active": true,
			"rules": [],
			"airline": {},
			"brandedFaresActive": false,
			"brandedFares": [],
			"marketingRules": ["own"],
			"operatingRules": ["own"],
			"flightNoLimit": [],
			"flightNoExcl": [],
			"marketingSpecificAirlines": [],
			"operatingSpecificAirlines": [],
			"excludeCodeshare": false,
			"excludedDates": [],
			"geographicalRules": [],
			"codedConditions": [],
			"geoLogicalOperand": "or",
			"purchase": {},
			"flight": {},
			"excludedDepartures": [],
			"excludedArrivals": [],
			"hasLegend": false
		},
		"defaultRedemptionRule": {
			"gril": [],
			"forLeg": false,
			"roundTrip": false,
			"applyToTiers": [],
			"seasonalDates": [],
			"logicalOperand": "OR"
		},
		"defaultFfpRedemption": {
			"type": "award",
			"currency": "USD",
			"seasons": [{
				"hierarchy": 1
			}]
		},
		"seasonHierarchy": [{
			"id": 1,
			"name": "Season 1"
		}, {
			"id": 2,
			"name": "Season 2"
		}, {
			"id": 3,
			"name": "Season 3"
		}],
		"defaultRedemptionSeason": {
			"hierarchy": 1
		},
		"defaultBenefit": {
			"active": true,
			"airline": {},
			"benefit": null,
			"status": null,
			"memberCostType": "free",
			"memberCurrencyCode": "USD",
			"memberDiscountAvailable": false,
			"guestsMaxNumber": 0,
			"guestsCostType": "free",
			"guestsDiscountAvailable": false,
			"distributeDisclainer": false,
			"marketingRules": ["own"],
			"marketingSpecificAirlines": [],
			"operatingRules": ["own"],
			"operatingSpecificAirlines": [],
			"geographicalRules": [],
			"purchase": {},
			"flight": {},
			"brandedFaresActive": false,
			"brandedFares": []
		},
		"benefitCostTypes": [{
			"id": "free",
			"name": "Out of charge"
		}, {
			"id": "fee",
			"name": "Fee"
		}, {
			"id": "miles",
			"name": "Miles redemption"
		}],
		"benefitsOrderBy": [{
			"id": "id",
			"name": "Rule ID"
		}, {
			"id": "benefit",
			"name": "Benefit & Status"
		}, {
			"id": "status",
			"name": "Status & Benefit"
		}],
		"defaultBenefitsOrderBy": "id",
		"calculationTargetTypes": [{
			"id": 1,
			"name": "Segment"
		}, {
			"id": 2,
			"name": "Leg including layover"
		}, {
			"id": 3,
			"name": "Leg excluding layover"
		}],
		"brandedFareAllowedCodeshare": "affi",
		"authFormInputType": [{
			"id": "text",
			"name": "Text"
		}, {
			"id": "email",
			"name": "Email"
		}, {
			"id": "password",
			"name": "Password"
		}, {
			"id": "date",
			"name": "Date"
		}, {
			"id": "select",
			"name": "List of options"
		}],
		"fareAttributesOrderBy": [{
			"id": "code",
			"name": "Rule ID"
		}, {
			"id": "name",
			"name": "Attribute name"
		}, {
			"id": "type",
			"name": "Attribute type"
		},{
			"id": "bf",
			"name": "Branded fare"
		}],
		"defaultFareAttributesOrderBy": "code",
		"fareAttributeCostTypes": [{
			"id": "free",
			"name": "Out of charge"
		}, {
			"id": "fee",
			"name": "Fee"
		}],
		"defaultFareAttribute": {
			"active": true,
			"airline": {},
			"brandedFaresActive": false,
			"brandedFares": [],
			"memberCostType": "free",
			"currencyCode": "USD",
			"guestsMaxNumber": 0,
			"memberCostFareDifference": false,
			"distributeDisclaimer": false,
			"marketingRules": ["own"],
			"marketingSpecificAirlines": [],
			"operatingRules": ["own"],
			"operatingSpecificAirlines": [],
			"flightNoExcl": [],
            "flightNoLimit": [],
            "geographicalRules": [],
            "geoLogicalOperand": "or",
            "codedConditions": [],
            "purchase": {},
			"flight": {} 
		},
		"bookingChannelOptions": [{
			"id": "none",
			"name": "None"
		},{
			"id": "airline",
			"name": "Airline"
		},{
			"id": "ota",
			"name": "Online Travel Agency"
		}]
	}
}