{
    "success": true,
    "result": {
        "items": [{
            "id": 1,
            "code": "AMP",
            "name": "Associated Mileage Plus",
            "earningActive": true,
            "redemptionActive": true,
            "benefitsActive": true,
            "attributesActive": true,
            "affiliatedAirlines": ["AB", "KZ", "L4"],
            "owningAirlines": ["ZM", "WK"],
            "airlineNames": {
                "AB": "Airline Bennin",
                "KZ": "Kazakh Airlines",
                "L4": "Lines 4 you",
                "ZM": "Zambia Airlines",
                "WK": "Worrenkgburg Airways"
            },
            "codeshareBase": "mk",
            "alliance": 1,
            "comment": "Lorem ipsum sidor lamet"
        },{
            "id": 2,
            "code": "DSD",
            "name": "Danish Southern Dragonflies",
            "earningActive": true,
            "redemptionActive": false,
            "benefitsActive": false,
            "attributesActive": true,
            "affiliatedAirlines": ["KM", "S3"],
            "owningAirlines": ["SM"],
            "airlineNames": {
                "KM": "Kanadian Airways",
                "S3": "Siberian Areo",
                "SM": "Smith's Airways"
            },
            "codeshareBase": "mk",
            "alliance": 2,
            "comment": "Lorem ipsum sidor lamet. Some longer description to be expanded on request"
        },{
            "id": 34,
            "code": "MUD",
            "name": "Machine United Drones",
            "earningActive": false,
            "redemptionActive": true,
            "benefitsActive": true,
            "attributesActive": true,
            "affiliatedAirlines": ["MD"],
            "owningAirlines": ["IM", "PP"],
            "airlineNames": {
                "MD": "McDonald's Airlines",
                "IM": "Inner Mongolian",
                "PP": "Puerto Rico Paperplanes"
            },
            "alliance": 35,
            "codeshareBase": "op"
        }]
    }
}