{
    "success": true,
    "result": {
        "ffpAutocompleteLimit": 8,
        "airlineAutocompleteLimit": 8,
        "maxFaresToCompare": 4,
        "userFfps": [{
            "id": 1,
            "name": "Miles and More"
        },{
            "id": 2,
            "name": "AAdvantage"
        }],
        "awardGoal": {
            "awardType": "flight",
            "departure": {
                "code": "AKN",
                "city": "Arkanas",
                "airport": "Arkansas State International Airport"
            },
            "arrival": {
                "code": "PVG",
                "city": "Shanghai",
                "airport": "Shanghai Pudong Airport"
            },
            "flightType": "round-trip",
            "passengers": 1,
            "cabin": "Economy"
        },
        "initialMode": "one-way",
        "flightNoSamples": [{
            "name": "Kayak",
            "screenshotUrl": "img/kayak-flight-no.jpg"
        },{
            "name": "Expedia",
            "screenshotUrl": "img/expedia-flight-no.jpg"
        }],
        "bookingCodeSamples": [{
            "name": "Kayak",
            "screenshotUrl": "img/kayak-fare-code.jpg"
        },{
            "name": "Expedia",
            "screenshotUrl": "img/expedia-fare-code.jpg"
        }]
        
    }
}