{
    "success": true,
    "result": {
        "display": "fareCode",
        "ffps": [{
            "id": 1,
            "name": "Super Frequent Program",
            "color": "lime",
            "fareCodes": [{
                "code": "A",
                "earnings": {
                    "rdm": "100%",
                    "eqm": "2",
                    "eqs": "125%",
                    "eqp": null
                },
                "notes": "Lorem ipsum sidor lamet"
            },{
                "code": "B",
                "earnings": {
                    "rdm": "200%",
                    "eqm": "2.5",
                    "eqs": "150%",
                    "eqp": null
                }
            },{
                "code": "D",
                "earnings": {
                    "rdm": "200%",
                    "eqm": "2",
                    "eqs": "150%",
                    "eqp": null
                }
            },{
                "code": "Q",
                "earnings": {
                    "rdm": "300%",
                    "eqm": "3",
                    "eqs": "200%",
                    "eqp": null
                }
            }]
        },{
            "id": 12,
            "name": "Another Program",
            "color": "gray",
            "fareCodes": [{
                "code": "A",
                "earnings": null
            },{
                "code": "B",
                "earnings": {
                    "rdm": "200%",
                    "eqm": "2.5",
                    "eqs": "150%",
                    "eqp": "1000"
                }
            },{
                "code": "D",
                "earnings": {
                    "rdm": "200%",
                    "eqm": "2",
                    "eqs": "150%",
                    "eqp": "2000"
                }
            },{
                "code": "Q",
                "earnings": {
                    "rdm": "300%",
                    "eqm": "3",
                    "eqs": "200%",
                    "eqp": "3000"
                }
            }]
        },{
            "id": 13,
            "name": "Third Program",
            "color": "yellow",
            "fareCodes": [{
                "code": "A",
                "earnings": {
                    "rdm": "200%",
                    "eqm": "1",
                    "eqs": "25%",
                    "eqp": null
                },
                "notes": "Lorem ipsum sidor lamet"
            },{
                "code": "B",
                "earnings": {
                    "rdm": "150%",
                    "eqm": "2",
                    "eqs": "150%",
                    "eqp": null
                }
            },{
                "code": "D",
                "earnings": null
            },{
                "code": "Q",
                "earnings": {
                    "rdm": "100%",
                    "eqm": "1",
                    "eqs": "100%",
                    "eqp": null
                }
            }]
        },{
            "id": 52,
            "name": "4th Extra Program",
            "color": "#ededed",
            "fareCodes": [{
                "code": "A",
                "earnings": {
                    "rdm": "1",
                    "eqm": "2",
                    "eqs": "3",
                    "eqp": "4"
                }
            },{
                "code": "B",
                "earnings": {
                    "rdm": "5",
                    "eqm": "6",
                    "eqs": "7",
                    "eqp": "8"
                }
            },{
                "code": "D",
                "earnings": {
                    "rdm": "9",
                    "eqm": "10",
                    "eqs": "11",
                    "eqp": "12"
                },
                "notes": "Lorem ipsum sidor lamet"
            },{
                "code": "Q",
                "earnings": {
                    "rdm": "13",
                    "eqm": "14",
                    "eqs": "15",
                    "eqp": "16"
                }
            }]
        }]
    }
}