{
    "success": true,
    "result": {
        "items": [{
            "id": 12,
            "message": "John Grape modified matrix in XZXHYD data cell",
            "timestamp": "2015-05-21T04:55:43.511Z",
            "url": "#/ffps/1/earning-rules/edit/1",
            "read": false
        },{
            "id": 11,
            "message": "Samson Doddle modified rule #DSDS7897-K",
            "timestamp": "2015-05-21T03:55:43.511Z",
            "url": "http://30k.com",
            "read": false
        },{
            "id": 10,
            "message": "Bill Smith modified rule #DSDS7897-Z",
            "timestamp": "2015-05-21T02:25:43.511Z",
            "url": "http://30k.com",
            "read": false
        },{
            "id": 1,
            "message": "Bill Smith modified rule #DSDS7897-A",
            "timestamp": "2015-04-23T18:25:43.511Z",
            "url": "http://30k.com",
            "read": true
        },{
            "id": 2,
            "message": "Bill Smith modified rule #DSDS7897-B",
            "timestamp": "2015-03-10T18:25:43.511Z",
            "url": "http://30k.com",
            "read": true
        },{
            "id": 3,
            "message": "Ron Brown modified rule #DSDS7897-A",
            "timestamp": "2012-04-23T18:25:43.511Z",
            "url": "http://google.com",
            "read": true
        }]
    }
}