{
    "success": true,
    "result": {
        "item": {
            "id": 1,
            "vars": [{
                "name": "Origin",
                "value": "USA"
            },{
                "name": "Type of miles",
                "value": "Award, status"
            },{
                "name": "The other var",
                "value": "The value"
            },{
                "name": "An extra param",
                "value": "Some values"
            }]
        }
    },
    "message": "Program has been updated"
}