{
    "success": true,
    "result": {
        "items": [{
            "id": 1,
            "code": "4R",
            "name": " Up to 41 li/105 lcm",
            "group": "BG",
            "subgroup": "CY",
            "desc1": "04"
        },{
            "id": 2,
            "code": "4U",
            "name": "Up to 45 li/115 lcm",
            "group": "BG",
            "subgroup": "CY",
            "desc1": "05"
        },{
            "id": 3,
            "code": "AR",
            "name": "Arrival",
            "group": "LG",
            "desc1": "EX"
        }]
    }
}