{
    "success": true,
    "result": {
        "groups": [{
            "id": 1,
            "code": "BG",
            "name": "Baggage"
        },{
            "id": 2,
            "code": "LG",
            "name": "Lounge"
        },{
            "id": 3,
            "code": "TS",
            "name": "Travel Services"
        },{
            "id": 4,
            "code": "BF",
            "name": "Branded fares"
        }],
        "subgroups": [{
            "id": 1,
            "code": "CY",
            "name": "Carry On Hand Baggage",
            "group": "BG"
        },{
            "id": 2,
            "code": "MI",
            "name": "Musical Instrument",
            "group": "BG"
        },{
            "id": 3,
            "code": "RF",
            "name": "Refund",
            "group": "BF"
        },{
            "id": 4,
            "code": "SE",
            "name": "Seat",
            "group": "BF"
        }],
        "desc1": [{
            "id": 1,
            "code": "04",
            "name": "Up to 9 lb/4 kg",
            "group": "BG",
            "subgroup": "CY"
        },{
            "id": 2,
            "code": "05",
            "name": "Up to 11 lb/5 kg",
            "group": "BG",
            "subgroup": "CY"
        },{
            "id": 3,
            "code": "MU",
            "name": "Musical Instrument",
            "group": "BG",
            "subgroup": "CY"
        },{
            "id": 4,
            "code": "23",
            "name": "Up to 50 lb/23 kg",
            "group": "BG"
        },{
            "id": 5,
            "code": "PR",
            "name": "Premium",
            "group": "BF",
            "subgroup": "SE"
        },{
            "id": 6,
            "code": "EX",
            "name": "Executive",
            "group": "LG"
        }],
        "desc2": [{
            "id": 1,
            "code": "4R",
            "name": " Up to 41 li/105 lcm",
            "group": "BG",
            "subgroup": "CY",
            "desc1": "04"
        },{
            "id": 2,
            "code": "4U",
            "name": "Up to 45 li/115 lcm",
            "group": "BG",
            "subgroup": "CY",
            "desc1": "05"
        },{
            "id": 3,
            "code": "AR",
            "name": "Arrival",
            "group": "LG",
            "desc1": "EX"
        }]
    }
}