{
    "success": true,
    "message": "2 fare attribute rules have been successfully saved",
    "result": {
        "items": [{
            "id": 1,
            "active": false,
            "summary": "New sumamry from server"
        },{
            "id": 2,
            "active": false,
            "summary": "New summary from server"
        }]
    }
}